Admin Application Report

Number of Approved Application : 4
Name : Fucker || Start Date : 15-12-2000 || End Date 18-12-2000 || Aprroved

Number of Unapproved Application : 4
Name : Syamim || Start Date : 11-12-2000 || End Date 14-12-2000 || Unaprroved
Name : applicant || Start Date : 08-12-2000 || End Date 10-12-2000 || Unaprroved
Name : Syamim || Start Date : 13-12-2000 || End Date 20-12-2000 || Unaprroved
