Applicant Name,Start Date,End Date,Approval
Syamim,11-12-2000,14-12-2000,false
Fucker,15-12-2000,18-12-2000,true
applicant,08-12-2000,10-12-2000,false
Syamim,13-12-2000,20-12-2000,false
Hensem,30-11-2010,2-12-2010,false
